QTL-seq系列 | 使用easyQTLseq进行QTL-seq分析 - 请叫我老王
…
x <- select_sample_and_SNP(data = data, 
                           highP = "qY",        # 高表型亲本名称
                           lowP = "R3",         # 低表型亲本名称
                           highB = "Y",         # 极端高表型混池名称
                           lowB = "R",          # 极端低表型混池名称
                           popType = "F2",      # 群体类型，F2或者RIL。如果你的是DH群体也需要填RIL
                           bulkSize = c(30, 30) # 混池大小，也就是高表型池和低表型池中个体的数量
                           )
x

## $data
## # A tibble: 722,424 × 12
##    CHROM          POS REF   ALT   HP.DP LP.DP HB.HP.AD HB.LP.AD HB.DP LB.HP.AD
##    <chr>        <dbl> <chr> <chr> <int> <int>    <int>    <int> <int>    <int>
##  1 scaffoldA01 275959 A     C        17    24        6        6    12       16
##  2 scaffoldA01 320766 G     A        19    11        6        6    12       10
##  3 scaffoldA01 361230 A     T        18     6        6        5    11        8
##  4 scaffoldA01 361486 G     T        26     9       13        5    18        8
##  5 scaffoldA01 361875 A     C        19     5        8        0     8        4
##  6 scaffoldA01 361884 T     G        19     5        8        0     8        6
##  7 scaffoldA01 362128 A     C        19     6        7        5    12        4
##  8 scaffoldA01 362153 T     G        20     5        8        5    13        6
##  9 scaffoldA01 364170 C     T        17    14       12        9    21       14
## 10 scaffoldA01 365454 T     C        18    10       11        5    16       15
## # ℹ 722,414 more rows
## # ℹ 2 more variables: LB.LP.AD <int>, LB.DP <int>
## 
## $highP
## [1] "qY"
## 
## $lowP
## [1] "R3"
## 
…
## 
## $lowB
## [1] "R"
## 
## $popType
## [1] "F2"
## 
## $bulkSize
## [1] 30 30
## 
## $slidwin
## data frame with 0 columns and 0 rows
## 
## $chrLen
## # A tibble: 523 × 2
##    CHROM            Len
##    <chr>          <dbl>
##  1 scaffold0022   70801
##  2 scaffold0025 4039467
##  3 scaffold0026 8552783
##  4 scaffold0027 5993037
##  5 scaffold0032   11673
##  6 scaffold0034   36998
##  7 scaffold0036     262
##  8 scaffold0037   23809
##  9 scaffold0038   32054
## 10 scaffold0039    6403
## ℹ 513 more rows
## ℹ Use `print(n = ...)` to see more rows
## 
## attr(,"class")
## [1] "QTLseq"     "WithParent" "BothParent"
…
